{
  "users": [
    {
      "id": 1,
      "name": "Anderson",
      "surname": "Silva",
      "email": "usuario1@email.com.br",
      "password": "123445",
      "isActive": true,
      "isAdm": true
    },
    {
      "id": 3,
      "name": "Diane",
      "surname": "Pacheco",
      "userType": "Usuário padrão",
      "email": "usuario3@email.com.br",
      "password": "123445",
      "isActive": false,
      "isAdm": true
    },
    {
      "id": 5,
      "name": "Camila",
      "surname": "Lindoso Cortez",
      "userType": "Usuário padrão",
      "email": "usuario5@email.com.br",
      "password": "123445",
      "isActive": true,
      "isAdm": false
    },
    {
      "id": 6,
      "name": "Antonio",
      "surname": "Neto da Silva Fernandes",
      "userType": "Administrador",
      "email": "usuario6@email.com.br",
      "password": "123445",
      "isActive": true,
      "isAdm": false
    },
    {
      "id": 7,
      "name": "Cleo",
      "surname": "Prado Douglas",
      "userType": "Usuário padrão",
      "email": "usuario7@email.com.br",
      "password": "123445",
      "isActive": true,
      "isAdm": false
    },
    {
      "id": 8,
      "name": "Maria",
      "surname": "Clara Araujo Martins",
      "userType": "Administrador",
      "email": "usuario8@email.com.br",
      "password": "123445",
      "isActive": true,
      "isAdm": false
    }
  ]
}
